Lecture 3
…
data<-read_tsv("example_dataset_1.tsv") %>%
  print(data, n=5)

## Parsed with column specification:
## cols(
##   strain = col_character(),
##   mean_yfp = col_integer(),
##   mean_rfp = col_integer(),
##   mean_ratio = col_double(),
##   se_ratio = col_double(),
##   insert_sequence = col_character(),
##   kozak_region = col_character()
## )

## # A tibble: 16 x 7
##   stra mean_yfp mean_rfp mean_ratio se_ratio insert_sequence kozak_region
##   <chr>    <int>    <int>      <dbl>    <dbl> <chr>           <chr>       
## 1 schp     1748    20754      0.755    0.066 10AGA          A           
## 2 schp     3294    20585      1.44     0.021 10AGA          B           
## 3 schp     3535    20593      1.54     0.018 10AGA          C           
## 4 schp     4658    20860      2.00     0.021 10AGA          D           
## 5 schp     5000    21171      2.12     0.023 10AGA          E           
## # ... with 11 more rows
…
print (data, n=3)

## # A tibble: 16 x 7
##   stra mean_yfp mean_rfp mean_ratio se_ratio insert_sequence kozak_region
##   <chr>    <int>    <int>      <dbl>    <dbl> <chr>           <chr>       
## 1 schp     1748    20754      0.755    0.066 10AGA          A           
## 2 schp     3294    20585      1.44     0.021 10AGA          B           
## 3 schp     3535    20593      1.54     0.018 10AGA          C           
## # ... with 13 more rows

data %>%
  print(n=3)

## # A tibble: 16 x 7
##   stra mean_yfp mean_rfp mean_ratio se_ratio insert_sequence kozak_region
##   <chr>    <int>    <int>      <dbl>    <dbl> <chr>           <chr>       
## 1 schp     1748    20754      0.755    0.066 10AGA          A           
## 2 schp     3294    20585      1.44     0.021 10AGA          B           
## 3 schp     3535    20593      1.54     0.018 10AGA          C           
## # ... with 13 more rows

data %>%
  print(n=2)

## # A tibble: 16 x 7
##   stra mean_yfp mean_rfp mean_ratio se_ratio insert_sequence kozak_region
##   <chr>    <int>    <int>      <dbl>    <dbl> <chr>           <chr>       
## 1 schp     1748    20754      0.755    0.066 10AGA          A           
## 2 schp     3294    20585      1.44     0.021 10AGA          B           
## # ... with 14 more rows

data %>%
  select(strain, mean_ratio, insert_sequence, kozak_region) %>%
  print(n=2)

## # A tibble: 16 x 4
##   strain  mean_ratio insert_sequence kozak_region
##   <chr>        <dbl> <chr>           <chr>       
## 1 schp688      0.755 10AGA          A           
## 2 schp684      1.44  10AGA          B           
## # ... with 14 more rows
…
